GeonWook - E-commerce 데이터 분석 (2)
…
## 2) max_amt, min_amt: 당월 송장당 최대/최소 구매금액
df_mart <- df_mart %>% left_join(
  df_origin_sample %>% 
  mutate(amt = UnitPrice * Quantity) %>% 
  group_by(bsym, CustomerID, InvoiceNo) %>% 
  reframe(amt = sum(amt, na.rm = T)) %>% 
  group_by(bsym, CustomerID) %>% 
  reframe(max_amt = max(amt, na.rm = T),
          min_amt = min(amt, na.rm = T)),
  by = c("bsym", "CustomerID")
)

df_mart

# A tibble: 7,495 × 5
   bsym    CustomerID total_amt max_amt min_amt
   <chr>   <chr>          <dbl>   <dbl>   <dbl>
 1 2009-12 12437          578.    578.    578. 
 2 2009-12 12523           74.6    74.6    74.6
 3 2009-12 12539         5149.   2583.   2566. 
 4 2009-12 12557         1953.   1953.   1953. 
 5 2009-12 12664          549.    549.    549. 
 6 2009-12 12681         1015.   1015.   1015. 
 7 2009-12 12682         1073.    508.    139. 
 8 2009-12 12709         1413.   1197.    216  
 9 2009-12 12712          334.    334.    334. 
10 2009-12 12747         1032     381.    303. 
# ℹ 7,485 more rows
