GeonWook - E-commerce 데이터 분석 (1)
…
    Quantity           UnitPrice       
 Min.   :-80995.00   Min.   :    0.00  
 1st Qu.:     2.00   1st Qu.:    1.25  
 Median :     5.00   Median :    1.95  
 Mean   :    12.41   Mean   :    3.68  
 3rd Qu.:    12.00   3rd Qu.:    3.75  
 Max.   : 80995.00   Max.   :38970.00  

구매 수량을 나타내는 Quantity는 음수 값을 가질 수 없으나, 반품 물품에 대한 값이 있으므로 확인 후 처리해야 합니다. 여기서는 Quantity가 음수인 값은 이상치(Outlier)라고 간주하고 삭제하겠습니다.

# Quantity가 음수인 데이터 확인 
# 반품 및 회수 물량일 수도 있음
df %>% filter(Quantity < 0)

# A tibble: 18,744 × 8
   InvoiceNo StockCode Description                       Quantity InvoiceDate         UnitPrice CustomerID Country       
   <chr>     <chr>     <chr>                                <int> <dttm>                  <dbl> <chr>      <chr>         
 1 C489449   22087     PAPER BUNTING WHITE LACE               -12 2009-12-01 10:33:00      2.95 16321      Australia     
 2 C489449   85206A    CREAM FELT EASTER EGG BASKET            -6 2009-12-01 10:33:00      1.65 16321      Australia     
 3 C489449   21895     POTTING SHED SOW 'N' GROW SET           -4 2009-12-01 10:33:00      4.25 16321      Australia     
 4 C489449   21896     POTTING SHED TWINE                      -6 2009-12-01 10:33:00      2.1  16321      Australia     
 5 C489449   22083     PAPER CHAIN KIT RETRO SPOT             -12 2009-12-01 10:33:00      2.95 16321      Australia     
 6 C489449   21871     SAVE THE PLANET MUG                    -12 2009-12-01 10:33:00      1.25 16321      Australia     
 7 C489449   84946     ANTIQUE SILVER TEA GLASS ETCHED        -12 2009-12-01 10:33:00      1.25 16321      Australia     
 8 C489449   84970S    HANGING HEART ZINC T-LIGHT HOLDER      -24 2009-12-01 10:33:00      0.85 16321      Australia     
 9 C489449   22090     PAPER BUNTING RETRO SPOTS              -12 2009-12-01 10:33:00      2.95 16321      Australia     
10 C489459   90200A    PURPLE SWEETHEART BRACELET              -3 2009-12-01 10:44:00      4.25 17592      United Kingdom
# ℹ 18,734 more rows
…
